<svg xmlns="http://www.w3.org/2000/svg" xmlns:xlink="http://www.w3.org/1999/xlink" width="66" height="66" viewBox="0 0 66 66">
  <defs>
    <clipPath id="clip-path">
      <path id="Clip_2" data-name="Clip 2" d="M0,0H66V66H0Z" transform="translate(0 0.681)" fill="none"/>
    </clipPath>
    <clipPath id="clip-path-2">
      <path id="Clip_5" data-name="Clip 5" d="M33,0A33,33,0,0,0,0,33H0A33,33,0,0,0,33,66h0A33,33,0,0,0,66,33h0A33,33,0,0,0,33,0Z" transform="translate(0 0.681)" fill="none"/>
    </clipPath>
    <clipPath id="clip-path-3">
      <path id="Clip_8" data-name="Clip 8" d="M33,0A33,33,0,0,0,0,33H0A33,33,0,0,0,33,66h0A33,33,0,0,0,66,33h0" transform="translate(0 0.681)" fill="none"/>
    </clipPath>
  </defs>
  <g id="Group_26" data-name="Group 26" transform="translate(0 -1)">
    <g id="Group_3" data-name="Group 3" transform="translate(0 0.319)">
      <path id="Clip_2-2" data-name="Clip 2" d="M0,0H66V66H0Z" transform="translate(0 0.681)" fill="none"/>
      <g id="Group_3-2" data-name="Group 3" clip-path="url(#clip-path)">
        <path id="Fill_1" data-name="Fill 1" d="M33,66A33,33,0,1,0,0,33,33,33,0,0,0,33,66" transform="translate(0 0.68)" fill="#33c516"/>
      </g>
    </g>
    <g id="Group_25" data-name="Group 25" transform="translate(0 0.319)">
      <g id="Group_6" data-name="Group 6">
        <path id="Clip_5-2" data-name="Clip 5" d="M33,0A33,33,0,0,0,0,33H0A33,33,0,0,0,33,66h0A33,33,0,0,0,66,33h0A33,33,0,0,0,33,0Z" transform="translate(0 0.681)" fill="none"/>
        <g id="Group_6-2" data-name="Group 6" clip-path="url(#clip-path-2)">
          <path id="Stroke_4" data-name="Stroke 4" d="M19.888,9.944A9.944,9.944,0,1,1,9.944,0,9.944,9.944,0,0,1,19.888,9.944Z" transform="translate(22.58 21.494)" fill="none" stroke="#fff" stroke-miterlimit="10" stroke-width="2.26"/>
        </g>
      </g>
      <g id="Group_9" data-name="Group 9">
        <path id="Clip_8-2" data-name="Clip 8" d="M33,0A33,33,0,0,0,0,33H0A33,33,0,0,0,33,66h0A33,33,0,0,0,66,33h0" transform="translate(0 0.681)" fill="none"/>
        <g id="Group_9-2" data-name="Group 9" clip-path="url(#clip-path-3)">
          <path id="Stroke_7" data-name="Stroke 7" d="M0,14.793v-3.94A10.884,10.884,0,0,1,10.852,0h7.675A10.884,10.884,0,0,1,29.38,10.853V26.211A10.885,10.885,0,0,1,18.527,37.064H10.852A10.884,10.884,0,0,1,0,26.211V14.793" transform="translate(18.512 46.806)" fill="none" stroke="#29fd2e" stroke-miterlimit="10" stroke-width="2.26"/>
        </g>
      </g>
      <g id="Group_12" data-name="Group 12">
        <path id="Clip_11-2" data-name="Clip 11" d="M33,0A33,33,0,0,0,0,33H0A33,33,0,0,0,33,66h0A33,33,0,0,0,66,33h0A33,33,0,0,0,33,0Z" transform="translate(0 0.681)" fill="none"/>
        <g id="Group_12-2" data-name="Group 12" clip-path="url(#clip-path-2)">
          <path id="Stroke_10" data-name="Stroke 10" d="M11.933,5.966A5.966,5.966,0,1,1,5.967,0,5.966,5.966,0,0,1,11.933,5.966Z" transform="translate(45.813 23.914)" fill="none" stroke="#fff" stroke-miterlimit="10" stroke-width="2.26"/>
        </g>
      </g>
      <g id="Group_15" data-name="Group 15">
        <path id="Clip_14-2" data-name="Clip 14" d="M33,0A33,33,0,0,0,0,33H0A33,33,0,0,0,33,66h0A33,33,0,0,0,66,33h0" transform="translate(0 0.681)" fill="none"/>
        <g id="Group_15-2" data-name="Group 15" clip-path="url(#clip-path-3)">
          <path id="Stroke_13" data-name="Stroke 13" d="M0,8.157V5.842A5.859,5.859,0,0,1,5.842,0h5.944a5.859,5.859,0,0,1,5.842,5.842v9.885a6.531,6.531,0,0,1-6.511,6.512" transform="translate(43.372 40.909)" fill="none" stroke="#29fd2e" stroke-miterlimit="10" stroke-width="2.26"/>
        </g>
      </g>
      <g id="Group_18" data-name="Group 18">
        <path id="Clip_17-2" data-name="Clip 17" d="M33,0A33,33,0,0,0,0,33H0A33,33,0,0,0,33,66h0A33,33,0,0,0,66,33h0A33,33,0,0,0,33,0Z" transform="translate(0 0.681)" fill="none"/>
        <g id="Group_18-2" data-name="Group 18" clip-path="url(#clip-path-2)">
          <path id="Stroke_16" data-name="Stroke 16" d="M11.933,5.966A5.966,5.966,0,1,1,5.967,0,5.966,5.966,0,0,1,11.933,5.966Z" transform="translate(6.94 23.914)" fill="none" stroke="#fff" stroke-miterlimit="10" stroke-width="2.26"/>
        </g>
      </g>
      <g id="Group_21" data-name="Group 21">
        <path id="Clip_20-2" data-name="Clip 20" d="M33,0A33,33,0,0,0,0,33H0A33,33,0,0,0,33,66h0A33,33,0,0,0,66,33h0" transform="translate(0 0.681)" fill="none"/>
        <g id="Group_21-2" data-name="Group 21" clip-path="url(#clip-path-3)">
          <path id="Stroke_19" data-name="Stroke 19" d="M6.511,13.362A6.53,6.53,0,0,1,0,6.851V0" transform="translate(4.5 49.785)" fill="none" stroke="#29fd2e" stroke-miterlimit="10" stroke-width="2.26"/>
        </g>
      </g>
      <g id="Group_24" data-name="Group 24">
        <path id="Clip_23-2" data-name="Clip 23" d="M33,0A33,33,0,0,0,0,33H0A33,33,0,0,0,33,66h0A33,33,0,0,0,66,33h0" transform="translate(0 0.681)" fill="none"/>
        <g id="Group_24-2" data-name="Group 24" clip-path="url(#clip-path-3)">
          <path id="Stroke_22" data-name="Stroke 22" d="M0,8.876V5.84A5.857,5.857,0,0,1,5.84,0h5.948a5.857,5.857,0,0,1,5.84,5.84l.452,2.769" transform="translate(4.5 40.909)" fill="none" stroke="#29fd2e" stroke-miterlimit="10" stroke-width="2.26"/>
        </g>
      </g>
    </g>
  </g>
</svg>
